module gitlab.com/phil9909/gitlab-local-connector

require (
	github.com/gorilla/websocket v1.4.0
	github.com/mitchellh/mapstructure v1.1.2
	github.com/speedata/gogit v0.0.0-20170530073720-f25600b364f0
	github.com/speedata/mmap-go v0.0.0-20141021215358-6c75090c5598 // indirect
)
